<svg width="935" height="1042" viewBox="0 0 935 1042" fill="none" xmlns="http://www.w3.org/2000/svg">
<path fill-rule="evenodd" clip-rule="evenodd" d="M790.745 792.717C719.428 837.829 628.084 792.61 543.818 797.135C471.936 800.995 398.366 849.682 334.107 817.236C269.817 784.774 263.372 697.858 225.672 636.492C183.262 567.46 92.5219 516.337 99.6708 435.635C106.799 355.166 190.764 304.247 258.942 260.914C316.128 224.566 384.916 226.399 451.176 212.22C522.542 196.949 598.029 138.678 661.454 174.782C725.232 211.087 698.265 313.742 737.959 375.469C785.409 449.256 900.918 477.25 911.928 564.284C923.018 651.943 865.417 745.482 790.745 792.717Z" fill="url(#paint0_linear)"/>
<defs>
<linearGradient id="paint0_linear" x1="760.983" y1="320.373" x2="310.701" y2="325.001" gradientUnits="userSpaceOnUse">
<stop stop-color="#FFCAD2"/>
<stop offset="1" stop-color="#FF8EA1"/>
</linearGradient>
</defs>
</svg>
